<?xml version="1.0" encoding="UTF-8"?>
<svg width="15px" height="14px" viewBox="0 0 15 14" version="1.1" xmlns="http://www.w3.org/2000/svg" xmlns:xlink="http://www.w3.org/1999/xlink">
    <!-- Generator: Sketch 48.2 (47327) - http://www.bohemiancoding.com/sketch -->
    <title>Page 1 Copy 2</title>
    <desc>Created with Sketch.</desc>
    <defs></defs>
    <g id="PDP" stroke="none" stroke-width="1" fill="none" fill-rule="evenodd" transform="translate(-1144.000000, -465.000000)">
        <g id="Group-4" transform="translate(816.000000, 463.000000)" fill="#EEE6D8">
            <polygon id="Page-1-Copy-2" points="335.035727 2 333.529138 4.9005418 330.443179 3.68846749 331.942106 7.41331269 328 7.96478328 331.116605 10.0603715 328.656571 11.3869969 332.739261 11.9821981 332.592165 16 335.216916 13.5638545 337.478906 16 337.850478 12.4028638 341.222585 12.8266254 338.553399 9.84442724 343 7.86106811 338.903519 6.79140867 339.627509 3.68846749 336.257317 5.82623839"></polygon>
        </g>
    </g>
</svg>