<?xml version="1.0" encoding="UTF-8"?>
<svg width="16px" height="16px" viewBox="0 0 16 16" version="1.1" xmlns="http://www.w3.org/2000/svg" xmlns:xlink="http://www.w3.org/1999/xlink">
    <!-- Generator: Sketch 48.2 (47327) - http://www.bohemiancoding.com/sketch -->
    <title>Page 1</title>
    <desc>Created with Sketch.</desc>
    <defs></defs>
    <g id="PDP---mobile---details-open" stroke="none" stroke-width="1" fill="none" fill-rule="evenodd" transform="translate(-231.000000, -806.000000)">
        <path d="M239,807.52381 C235.429078,807.52381 232.52381,810.429078 232.52381,814 C232.52381,817.570922 235.429078,820.47619 239,820.47619 C242.570922,820.47619 245.47619,817.570922 245.47619,814 C245.47619,810.429078 242.570922,807.52381 239,807.52381 M239,822 C234.588716,822 231,818.411284 231,814 C231,809.588716 234.588716,806 239,806 C243.411284,806 247,809.588716 247,814 C247,818.411284 243.411284,822 239,822" id="Page-1" fill="#02AE56"></path>
    </g>
</svg>